{
  "@type": "MessageCard",
  "@context": "http://schema.org/extensions",
  "summary": "webhook event",
  "themeColor": "0078D7",
  "sections": [
    {
      "activityTitle": "**Pipeline [(${object_attributes.status})]**",
      "activitySubtitle": "[( ${user.name} )]",
      "activityImage": "[( ${user.avatar_url} )]",
      "facts": [
        {
          "name": "Created at:",
          "value": "[( ${object_attributes.created_at} )]"
        },
        {
          "name": "Duration:",
          "value": "[( ${object_attributes.duration} )]"
        },
        {
          "name": "Branch:",
          "value": "[( ${object_attributes.ref} )]"
        },
        {
          "name": "Project:",
          "value": "[ [( ${project.name} )] ]([( ${project.web_url} )])"
        }
      ]
    }
    ,
    {
      "activityTitle": "Build jobs:",
      "style":"emphasis",
      "facts": [
        [# th:each="build_job : ${builds}"]
        {
          "name": "[( ${build_job.stage} )] / [( ${build_job.name} )]",
          "value": "[( ${build_job.status} )]"
        },
        [/]

        {
          "name": "",
          "value": ""
        }
        ]
    }

  ]
}
